{
    "sass": {
        "files": "src/css/**/*.s[ac]ss",
        "output": "public/stylesheets"
    },
    "js": {
        "files": "src/js/**/*.jsx?",
        "output": "public/javascripts",
        "name": "bundle.js"
    },
    "images": {
        "files": "src/images/**/*.[extension]",
        "output": "public/images",
        "extensions": [
            "png",
            "jpg",
            "webp"
        ]
    }
}
